%YAML 1.1
%TAG !u! tag:unity3d.com,2011:
--- !u!1 &100000
GameObject:
  m_ObjectHideFlags: 0
  m_PrefabParentObject: {fileID: 0}
  m_PrefabInternal: {fileID: 100100000}
  serializedVersion: 4
  m_Component:
  - 4: {fileID: 400000}
  - 114: {fileID: 11400000}
  m_Layer: 0
  m_Name: GoblinsAtlas
  m_TagString: Untagged
  m_Icon: {fileID: 0}
  m_NavMeshLayer: 0
  m_StaticEditorFlags: 0
  m_IsActive: 1
--- !u!4 &400000
Transform:
  m_ObjectHideFlags: 1
  m_PrefabParentObject: {fileID: 0}
  m_PrefabInternal: {fileID: 100100000}
  m_GameObject: {fileID: 100000}
  m_LocalRotation: {x: 0, y: 0, z: 0, w: 1}
  m_LocalPosition: {x: 0, y: 0, z: 0}
  m_LocalScale: {x: 1, y: 1, z: 1}
  m_Children: []
  m_Father: {fileID: 0}
  m_RootOrder: 0
--- !u!114 &11400000
MonoBehaviour:
  m_ObjectHideFlags: 1
  m_PrefabParentObject: {fileID: 0}
  m_PrefabInternal: {fileID: 100100000}
  m_GameObject: {fileID: 100000}
  m_Enabled: 1
  m_EditorHideFlags: 0
  m_Script: {fileID: 11500000, guid: d546f34a90531a14eaba82a43b05b86b, type: 3}
  m_Name: 
  m_EditorClassIdentifier: 
  version: 3
  materialIdsValid: 1
  needMaterialInstance: 0
  spriteDefinitions:
  - name: eyes-closed
    boundsData:
    - {x: 0, y: 0, z: 0}
    - {x: 34, y: 12, z: 0}
    untrimmedBoundsData:
    - {x: 0, y: 0, z: 0}
    - {x: 34, y: 12, z: 0}
    texelSize: {x: 1, y: 1}
    positions:
    - {x: -17, y: -6, z: 0}
    - {x: 17, y: -6, z: 0}
    - {x: -17, y: 6, z: 0}
    - {x: 17, y: 6, z: 0}
    normals: []
    tangents: []
    uvs:
    - {x: .238285154, y: .958986342}
    - {x: .371089846, y: .958986342}
    - {x: .238285154, y: .982419908}
    - {x: .371089846, y: .982419908}
    indices: 000000000300000001000000020000000300000000000000
    material: {fileID: 2100000, guid: 0b38b0b706d87b04ab4621c37c7d5019, type: 2}
    materialId: 0
    sourceTextureGUID: 2f9da4d291a7421488b5d8c4c33fc5b4
    extractRegion: 0
    regionX: 0
    regionY: 0
    regionW: 0
    regionH: 0
    flipped: 0
    complexGeometry: 0
    physicsEngine: 0
    colliderType: 0
    customColliders: []
    colliderVertices: []
    colliderIndicesFwd: 
    colliderIndicesBack: 
    colliderConvex: 0
    colliderSmoothSphereCollisions: 0
    polygonCollider2D: []
    edgeCollider2D: []
    attachPoints: []
  - name: head
    boundsData:
    - {x: .5, y: 0, z: 0}
    - {x: 103, y: 66, z: 0}
    untrimmedBoundsData:
    - {x: .5, y: 0, z: 0}
    - {x: 103, y: 66, z: 0}
    texelSize: {x: 1, y: 1}
    positions:
    - {x: -51, y: -33, z: 0}
    - {x: 52, y: -33, z: 0}
    - {x: -51, y: 33, z: 0}
    - {x: 52, y: 33, z: 0}
    normals: []
    tangents: []
    uvs:
    - {x: .00781640597, y: .730470717}
    - {x: .410152346, y: .730470717}
    - {x: .00781640597, y: .859373033}
    - {x: .410152346, y: .859373033}
    indices: 000000000300000001000000020000000300000000000000
    material: {fileID: 2100000, guid: 0b38b0b706d87b04ab4621c37c7d5019, type: 2}
    materialId: 0
    sourceTextureGUID: bcce48841f8498e49876846c151dc4d7
    extractRegion: 0
    regionX: 0
    regionY: 0
    regionW: 0
    regionH: 0
    flipped: 0
    complexGeometry: 0
    physicsEngine: 0
    colliderType: 0
    customColliders: []
    colliderVertices: []
    colliderIndicesFwd: 
    colliderIndicesBack: 
    colliderConvex: 0
    colliderSmoothSphereCollisions: 0
    polygonCollider2D: []
    edgeCollider2D: []
    attachPoints: []
  - name: left-arm
    boundsData:
    - {x: .5, y: -.5, z: 0}
    - {x: 37, y: 35, z: 0}
    untrimmedBoundsData:
    - {x: .5, y: -.5, z: 0}
    - {x: 37, y: 35, z: 0}
    texelSize: {x: 1, y: 1}
    positions:
    - {x: -18, y: -18, z: 0}
    - {x: 19, y: -18, z: 0}
    - {x: -18, y: 17, z: 0}
    - {x: 19, y: 17, z: 0}
    normals: []
    tangents: []
    uvs:
    - {x: .527347684, y: .859376967}
    - {x: .671871066, y: .859376967}
    - {x: .527347684, y: .927732408}
    - {x: .671871066, y: .927732408}
    indices: 000000000300000001000000020000000300000000000000
    material: {fileID: 2100000, guid: 0b38b0b706d87b04ab4621c37c7d5019, type: 2}
    materialId: 0
    sourceTextureGUID: cf0aa5059c48db64380b5d8d9d48bbf7
    extractRegion: 0
    regionX: 0
    regionY: 0
    regionW: 0
    regionH: 0
    flipped: 0
    complexGeometry: 0
    physicsEngine: 0
    colliderType: 0
    customColliders: []
    colliderVertices: []
    colliderIndicesFwd: 
    colliderIndicesBack: 
    colliderConvex: 0
    colliderSmoothSphereCollisions: 0
    polygonCollider2D: []
    edgeCollider2D: []
    attachPoints: []
  - name: left-foot
    boundsData:
    - {x: .5, y: -.5, z: 0}
    - {x: 65, y: 31, z: 0}
    untrimmedBoundsData:
    - {x: .5, y: -.5, z: 0}
    - {x: 65, y: 31, z: 0}
    texelSize: {x: 1, y: 1}
    positions:
    - {x: -32, y: -16, z: 0}
    - {x: 33, y: -16, z: 0}
    - {x: -32, y: 15, z: 0}
    - {x: 33, y: 15, z: 0}
    normals: []
    tangents: []
    uvs:
    - {x: .109378904, y: .648439467}
    - {x: .363277346, y: .648439467}
    - {x: .109378904, y: .708982408}
    - {x: .363277346, y: .708982408}
    indices: 000000000300000001000000020000000300000000000000
    material: {fileID: 2100000, guid: 0b38b0b706d87b04ab4621c37c7d5019, type: 2}
    materialId: 0
    sourceTextureGUID: 14451be1ccd40764e9be7944b1b35d7e
    extractRegion: 0
    regionX: 0
    regionY: 0
    regionW: 0
    regionH: 0
    flipped: 0
    complexGeometry: 0
    physicsEngine: 0
    colliderType: 0
    customColliders: []
    colliderVertices: []
    colliderIndicesFwd: 
    colliderIndicesBack: 
    colliderConvex: 0
    colliderSmoothSphereCollisions: 0
    polygonCollider2D: []
    edgeCollider2D: []
    attachPoints: []
  - name: left-hand
    boundsData:
    - {x: 0, y: -.5, z: 0}
    - {x: 36, y: 41, z: 0}
    untrimmedBoundsData:
    - {x: 0, y: -.5, z: 0}
    - {x: 36, y: 41, z: 0}
    texelSize: {x: 1, y: 1}
    positions:
    - {x: -18, y: -21, z: 0}
    - {x: 18, y: -21, z: 0}
    - {x: -18, y: 20, z: 0}
    - {x: 18, y: 20, z: 0}
    normals: []
    tangents: []
    uvs:
    - {x: .535160184, y: .595705092}
    - {x: .675777316, y: .595705092}
    - {x: .535160184, y: .675779283}
    - {x: .675777316, y: .675779283}
    indices: 000000000300000001000000020000000300000000000000
    material: {fileID: 2100000, guid: 0b38b0b706d87b04ab4621c37c7d5019, type: 2}
    materialId: 0
    sourceTextureGUID: 2f39487177b6d0f429497745e64e1db0
    extractRegion: 0
    regionX: 0
    regionY: 0
    regionW: 0
    regionH: 0
    flipped: 0
    complexGeometry: 0
    physicsEngine: 0
    colliderType: 0
    customColliders: []
    colliderVertices: []
    colliderIndicesFwd: 
    colliderIndicesBack: 
    colliderConvex: 0
    colliderSmoothSphereCollisions: 0
    polygonCollider2D: []
    edgeCollider2D: []
    attachPoints: []
  - name: left-lower-leg
    boundsData:
    - {x: .5, y: 0, z: 0}
    - {x: 33, y: 70, z: 0}
    untrimmedBoundsData:
    - {x: .5, y: 0, z: 0}
    - {x: 33, y: 70, z: 0}
    texelSize: {x: 1, y: 1}
    positions:
    - {x: -16, y: -35, z: 0}
    - {x: 17, y: -35, z: 0}
    - {x: -16, y: 35, z: 0}
    - {x: 17, y: 35, z: 0}
    normals: []
    tangents: []
    uvs:
    - {x: .527347684, y: .355470717}
    - {x: .656246066, y: .355470717}
    - {x: .527347684, y: .492185533}
    - {x: .656246066, y: .492185533}
    indices: 000000000300000001000000020000000300000000000000
    material: {fileID: 2100000, guid: 0b38b0b706d87b04ab4621c37c7d5019, type: 2}
    materialId: 0
    sourceTextureGUID: d875337f331493b448affcae727ab7b0
    extractRegion: 0
    regionX: 0
    regionY: 0
    regionW: 0
    regionH: 0
    flipped: 0
    complexGeometry: 0
    physicsEngine: 0
    colliderType: 0
    customColliders: []
    colliderVertices: []
    colliderIndicesFwd: 
    colliderIndicesBack: 
    colliderConvex: 0
    colliderSmoothSphereCollisions: 0
    polygonCollider2D: []
    edgeCollider2D: []
    attachPoints: []
  - name: left-shoulder
    boundsData:
    - {x: .5, y: 0, z: 0}
    - {x: 29, y: 44, z: 0}
    untrimmedBoundsData:
    - {x: .5, y: 0, z: 0}
    - {x: 29, y: 44, z: 0}
    texelSize: {x: 1, y: 1}
    positions:
    - {x: -14, y: -22, z: 0}
    - {x: 15, y: -22, z: 0}
    - {x: -14, y: 22, z: 0}
    - {x: 15, y: 22, z: 0}
    normals: []
    tangents: []
    uvs:
    - {x: .398441404, y: .00390820298}
    - {x: .511714816, y: .00390820298}
    - {x: .398441404, y: .0898417979}
    - {x: .511714816, y: .0898417979}
    indices: 000000000300000001000000020000000300000000000000
    material: {fileID: 2100000, guid: 0b38b0b706d87b04ab4621c37c7d5019, type: 2}
    materialId: 0
    sourceTextureGUID: 6c0265e742cac734e86738c88cac3187
    extractRegion: 0
    regionX: 0
    regionY: 0
    regionW: 0
    regionH: 0
    flipped: 0
    complexGeometry: 0
    physicsEngine: 0
    colliderType: 0
    customColliders: []
    colliderVertices: []
    colliderIndicesFwd: 
    colliderIndicesBack: 
    colliderConvex: 0
    colliderSmoothSphereCollisions: 0
    polygonCollider2D: []
    edgeCollider2D: []
    attachPoints: []
  - name: left-upper-leg
    boundsData:
    - {x: .5, y: -.5, z: 0}
    - {x: 33, y: 73, z: 0}
    untrimmedBoundsData:
    - {x: .5, y: -.5, z: 0}
    - {x: 33, y: 73, z: 0}
    texelSize: {x: 1, y: 1}
    positions:
    - {x: -16, y: -37, z: 0}
    - {x: 17, y: -37, z: 0}
    - {x: -16, y: 36, z: 0}
    - {x: 17, y: 36, z: 0}
    normals: []
    tangents: []
    uvs:
    - {x: .789066434, y: .222658202}
    - {x: .917964816, y: .222658202}
    - {x: .789066434, y: .365232408}
    - {x: .917964816, y: .365232408}
    indices: 000000000300000001000000020000000300000000000000
    material: {fileID: 2100000, guid: 0b38b0b706d87b04ab4621c37c7d5019, type: 2}
    materialId: 0
    sourceTextureGUID: 30edd05fdf3f3ec4897c5f095cfba8f9
    extractRegion: 0
    regionX: 0
    regionY: 0
    regionW: 0
    regionH: 0
    flipped: 0
    complexGeometry: 0
    physicsEngine: 0
    colliderType: 0
    customColliders: []
    colliderVertices: []
    colliderIndicesFwd: 
    colliderIndicesBack: 
    colliderConvex: 0
    colliderSmoothSphereCollisions: 0
    polygonCollider2D: []
    edgeCollider2D: []
    attachPoints: []
  - name: neck
    boundsData:
    - {x: 0, y: -.5, z: 0}
    - {x: 36, y: 41, z: 0}
    untrimmedBoundsData:
    - {x: 0, y: -.5, z: 0}
    - {x: 36, y: 41, z: 0}
    texelSize: {x: 1, y: 1}
    positions:
    - {x: -18, y: -21, z: 0}
    - {x: 18, y: -21, z: 0}
    - {x: -18, y: 20, z: 0}
    - {x: 18, y: 20, z: 0}
    normals: []
    tangents: []
    uvs:
    - {x: .566410184, y: .500001967}
    - {x: .707027316, y: .500001967}
    - {x: .566410184, y: .580076158}
    - {x: .707027316, y: .580076158}
    indices: 000000000300000001000000020000000300000000000000
    material: {fileID: 2100000, guid: 0b38b0b706d87b04ab4621c37c7d5019, type: 2}
    materialId: 0
    sourceTextureGUID: 946e1ac49a597d642940d2bc61a74ceb
    extractRegion: 0
    regionX: 0
    regionY: 0
    regionW: 0
    regionH: 0
    flipped: 0
    complexGeometry: 0
    physicsEngine: 0
    colliderType: 0
    customColliders: []
    colliderVertices: []
    colliderIndicesFwd: 
    colliderIndicesBack: 
    colliderConvex: 0
    colliderSmoothSphereCollisions: 0
    polygonCollider2D: []
    edgeCollider2D: []
    attachPoints: []
  - name: pelvis
    boundsData:
    - {x: 0, y: -.5, z: 0}
    - {x: 62, y: 43, z: 0}
    untrimmedBoundsData:
    - {x: 0, y: -.5, z: 0}
    - {x: 62, y: 43, z: 0}
    texelSize: {x: 1, y: 1}
    positions:
    - {x: -31, y: -22, z: 0}
    - {x: 31, y: -22, z: 0}
    - {x: -31, y: 21, z: 0}
    - {x: 31, y: 21, z: 0}
    normals: []
    tangents: []
    uvs:
    - {x: .00781640597, y: .867189467}
    - {x: .249996096, y: .867189467}
    - {x: .00781640597, y: .951169908}
    - {x: .249996096, y: .951169908}
    indices: 000000000300000001000000020000000300000000000000
    material: {fileID: 2100000, guid: 0b38b0b706d87b04ab4621c37c7d5019, type: 2}
    materialId: 0
    sourceTextureGUID: 34721831e8dc33048a1c642af9c91860
    extractRegion: 0
    regionX: 0
    regionY: 0
    regionW: 0
    regionH: 0
    flipped: 0
    complexGeometry: 0
    physicsEngine: 0
    colliderType: 0
    customColliders: []
    colliderVertices: []
    colliderIndicesFwd: 
    colliderIndicesBack: 
    colliderConvex: 0
    colliderSmoothSphereCollisions: 0
    polygonCollider2D: []
    edgeCollider2D: []
    attachPoints: []
  - name: right-arm
    boundsData:
    - {x: .5, y: 0, z: 0}
    - {x: 23, y: 50, z: 0}
    untrimmedBoundsData:
    - {x: .5, y: 0, z: 0}
    - {x: 23, y: 50, z: 0}
    texelSize: {x: 1, y: 1}
    positions:
    - {x: -11, y: -25, z: 0}
    - {x: 12, y: -25, z: 0}
    - {x: -11, y: 25, z: 0}
    - {x: 12, y: 25, z: 0}
    normals: []
    tangents: []
    uvs:
    - {x: .683597684, y: .199220702}
    - {x: .773433566, y: .199220702}
    - {x: .683597684, y: .296873033}
    - {x: .773433566, y: .296873033}
    indices: 000000000300000001000000020000000300000000000000
    material: {fileID: 2100000, guid: 0b38b0b706d87b04ab4621c37c7d5019, type: 2}
    materialId: 0
    sourceTextureGUID: 0fc0421ba4507d7479276646539febf7
    extractRegion: 0
    regionX: 0
    regionY: 0
    regionW: 0
    regionH: 0
    flipped: 0
    complexGeometry: 0
    physicsEngine: 0
    colliderType: 0
    customColliders: []
    colliderVertices: []
    colliderIndicesFwd: 
    colliderIndicesBack: 
    colliderConvex: 0
    colliderSmoothSphereCollisions: 0
    polygonCollider2D: []
    edgeCollider2D: []
    attachPoints: []
  - name: right-foot
    boundsData:
    - {x: .5, y: -.5, z: 0}
    - {x: 63, y: 33, z: 0}
    untrimmedBoundsData:
    - {x: .5, y: -.5, z: 0}
    - {x: 63, y: 33, z: 0}
    texelSize: {x: 1, y: 1}
    positions:
    - {x: -31, y: -17, z: 0}
    - {x: 32, y: -17, z: 0}
    - {x: -31, y: 16, z: 0}
    - {x: 32, y: 16, z: 0}
    normals: []
    tangents: []
    uvs:
    - {x: .265628904, y: .867189467}
    - {x: .511714816, y: .867189467}
    - {x: .265628904, y: .931638658}
    - {x: .511714816, y: .931638658}
    indices: 000000000300000001000000020000000300000000000000
    material: {fileID: 2100000, guid: 0b38b0b706d87b04ab4621c37c7d5019, type: 2}
    materialId: 0
    sourceTextureGUID: 232f1d4aee7e76547b4a3349b7fd4f29
    extractRegion: 0
    regionX: 0
    regionY: 0
    regionW: 0
    regionH: 0
    flipped: 0
    complexGeometry: 0
    physicsEngine: 0
    colliderType: 0
    customColliders: []
    colliderVertices: []
    colliderIndicesFwd: 
    colliderIndicesBack: 
    colliderConvex: 0
    colliderSmoothSphereCollisions: 0
    polygonCollider2D: []
    edgeCollider2D: []
    attachPoints: []
  - name: right-hand
    boundsData:
    - {x: 0, y: -.5, z: 0}
    - {x: 36, y: 37, z: 0}
    untrimmedBoundsData:
    - {x: 0, y: -.5, z: 0}
    - {x: 36, y: 37, z: 0}
    texelSize: {x: 1, y: 1}
    positions:
    - {x: -18, y: -19, z: 0}
    - {x: 18, y: -19, z: 0}
    - {x: -18, y: 18, z: 0}
    - {x: 18, y: 18, z: 0}
    normals: []
    tangents: []
    uvs:
    - {x: .378910154, y: .648439467}
    - {x: .519527316, y: .648439467}
    - {x: .378910154, y: .720701158}
    - {x: .519527316, y: .720701158}
    indices: 000000000300000001000000020000000300000000000000
    material: {fileID: 2100000, guid: 0b38b0b706d87b04ab4621c37c7d5019, type: 2}
    materialId: 0
    sourceTextureGUID: e89eca7d89b489f4491b5ec1cbb3ddf7
    extractRegion: 0
    regionX: 0
    regionY: 0
    regionW: 0
    regionH: 0
    flipped: 0
    complexGeometry: 0
    physicsEngine: 0
    colliderType: 0
    customColliders: []
    colliderVertices: []
    colliderIndicesFwd: 
    colliderIndicesBack: 
    colliderConvex: 0
    colliderSmoothSphereCollisions: 0
    polygonCollider2D: []
    edgeCollider2D: []
    attachPoints: []
  - name: right-lower-leg
    boundsData:
    - {x: 0, y: 0, z: 0}
    - {x: 36, y: 76, z: 0}
    untrimmedBoundsData:
    - {x: 0, y: 0, z: 0}
    - {x: 36, y: 76, z: 0}
    texelSize: {x: 1, y: 1}
    positions:
    - {x: -18, y: -38, z: 0}
    - {x: 18, y: -38, z: 0}
    - {x: -18, y: 38, z: 0}
    - {x: 18, y: 38, z: 0}
    normals: []
    tangents: []
    uvs:
    - {x: .527347684, y: .199220702}
    - {x: .667964816, y: .199220702}
    - {x: .527347684, y: .347654283}
    - {x: .667964816, y: .347654283}
    indices: 000000000300000001000000020000000300000000000000
    material: {fileID: 2100000, guid: 0b38b0b706d87b04ab4621c37c7d5019, type: 2}
    materialId: 0
    sourceTextureGUID: aab7b79018a3ec84baccbeb6d9c40554
    extractRegion: 0
    regionX: 0
    regionY: 0
    regionW: 0
    regionH: 0
    flipped: 0
    complexGeometry: 0
    physicsEngine: 0
    colliderType: 0
    customColliders: []
    colliderVertices: []
    colliderIndicesFwd: 
    colliderIndicesBack: 
    colliderConvex: 0
    colliderSmoothSphereCollisions: 0
    polygonCollider2D: []
    edgeCollider2D: []
    attachPoints: []
  - name: right-shoulder
    boundsData:
    - {x: .5, y: -.5, z: 0}
    - {x: 39, y: 45, z: 0}
    untrimmedBoundsData:
    - {x: .5, y: -.5, z: 0}
    - {x: 39, y: 45, z: 0}
    texelSize: {x: 1, y: 1}
    positions:
    - {x: -19, y: -23, z: 0}
    - {x: 20, y: -23, z: 0}
    - {x: -19, y: 22, z: 0}
    - {x: 20, y: 22, z: 0}
    normals: []
    tangents: []
    uvs:
    - {x: .398441404, y: .500001967}
    - {x: .550777316, y: .500001967}
    - {x: .398441404, y: .587888658}
    - {x: .550777316, y: .587888658}
    indices: 000000000300000001000000020000000300000000000000
    material: {fileID: 2100000, guid: 0b38b0b706d87b04ab4621c37c7d5019, type: 2}
    materialId: 0
    sourceTextureGUID: d0937186e72f856419c9dbcaec82762d
    extractRegion: 0
    regionX: 0
    regionY: 0
    regionW: 0
    regionH: 0
    flipped: 0
    complexGeometry: 0
    physicsEngine: 0
    colliderType: 0
    customColliders: []
    colliderVertices: []
    colliderIndicesFwd: 
    colliderIndicesBack: 
    colliderConvex: 0
    colliderSmoothSphereCollisions: 0
    polygonCollider2D: []
    edgeCollider2D: []
    attachPoints: []
  - name: right-upper-leg
    boundsData:
    - {x: 0, y: -.5, z: 0}
    - {x: 34, y: 63, z: 0}
    untrimmedBoundsData:
    - {x: 0, y: -.5, z: 0}
    - {x: 34, y: 63, z: 0}
    texelSize: {x: 1, y: 1}
    positions:
    - {x: -17, y: -32, z: 0}
    - {x: 17, y: -32, z: 0}
    - {x: -17, y: 31, z: 0}
    - {x: 17, y: 31, z: 0}
    normals: []
    tangents: []
    uvs:
    - {x: .425785154, y: .728517592}
    - {x: .558589816, y: .728517592}
    - {x: .425785154, y: .851560533}
    - {x: .558589816, y: .851560533}
    indices: 000000000300000001000000020000000300000000000000
    material: {fileID: 2100000, guid: 0b38b0b706d87b04ab4621c37c7d5019, type: 2}
    materialId: 0
    sourceTextureGUID: 438e00f2d68cac24bace724555e443b5
    extractRegion: 0
    regionX: 0
    regionY: 0
    regionW: 0
    regionH: 0
    flipped: 0
    complexGeometry: 0
    physicsEngine: 0
    colliderType: 0
    customColliders: []
    colliderVertices: []
    colliderIndicesFwd: 
    colliderIndicesBack: 
    colliderConvex: 0
    colliderSmoothSphereCollisions: 0
    polygonCollider2D: []
    edgeCollider2D: []
    attachPoints: []
  - name: torso
    boundsData:
    - {x: 0, y: 0, z: 0}
    - {x: 68, y: 96, z: 0}
    untrimmedBoundsData:
    - {x: 0, y: 0, z: 0}
    - {x: 68, y: 96, z: 0}
    texelSize: {x: 1, y: 1}
    positions:
    - {x: -34, y: -48, z: 0}
    - {x: 34, y: -48, z: 0}
    - {x: -34, y: 48, z: 0}
    - {x: 34, y: 48, z: 0}
    normals: []
    tangents: []
    uvs:
    - {x: .527347684, y: .00390820298}
    - {x: .792964816, y: .00390820298}
    - {x: .527347684, y: .191404298}
    - {x: .792964816, y: .191404298}
    indices: 000000000300000001000000020000000300000000000000
    material: {fileID: 2100000, guid: 0b38b0b706d87b04ab4621c37c7d5019, type: 2}
    materialId: 0
    sourceTextureGUID: 9427b1a031010ab41b9cda104be8c204
    extractRegion: 0
    regionX: 0
    regionY: 0
    regionW: 0
    regionH: 0
    flipped: 0
    complexGeometry: 0
    physicsEngine: 0
    colliderType: 0
    customColliders: []
    colliderVertices: []
    colliderIndicesFwd: 
    colliderIndicesBack: 
    colliderConvex: 0
    colliderSmoothSphereCollisions: 0
    polygonCollider2D: []
    edgeCollider2D: []
    attachPoints: []
  - name: undie-straps
    boundsData:
    - {x: .5, y: -.5, z: 0}
    - {x: 55, y: 19, z: 0}
    untrimmedBoundsData:
    - {x: .5, y: -.5, z: 0}
    - {x: 55, y: 19, z: 0}
    texelSize: {x: 1, y: 1}
    positions:
    - {x: -27, y: -10, z: 0}
    - {x: 28, y: -10, z: 0}
    - {x: -27, y: 9, z: 0}
    - {x: 28, y: 9, z: 0}
    normals: []
    tangents: []
    uvs:
    - {x: .00781640597, y: .958986342}
    - {x: .222652346, y: .958986342}
    - {x: .00781640597, y: .996091783}
    - {x: .222652346, y: .996091783}
    indices: 000000000300000001000000020000000300000000000000
    material: {fileID: 2100000, guid: 0b38b0b706d87b04ab4621c37c7d5019, type: 2}
    materialId: 0
    sourceTextureGUID: 9cfb974ed9f3dd042895ccfe0e2461b1
    extractRegion: 0
    regionX: 0
    regionY: 0
    regionW: 0
    regionH: 0
    flipped: 0
    complexGeometry: 0
    physicsEngine: 0
    colliderType: 0
    customColliders: []
    colliderVertices: []
    colliderIndicesFwd: 
    colliderIndicesBack: 
    colliderConvex: 0
    colliderSmoothSphereCollisions: 0
    polygonCollider2D: []
    edgeCollider2D: []
    attachPoints: []
  - name: undies
    boundsData:
    - {x: 0, y: -.5, z: 0}
    - {x: 36, y: 29, z: 0}
    untrimmedBoundsData:
    - {x: 0, y: -.5, z: 0}
    - {x: 36, y: 29, z: 0}
    texelSize: {x: 1, y: 1}
    positions:
    - {x: -18, y: -15, z: 0}
    - {x: 18, y: -15, z: 0}
    - {x: -18, y: 14, z: 0}
    - {x: 18, y: 14, z: 0}
    normals: []
    tangents: []
    uvs:
    - {x: .386722654, y: .939455092}
    - {x: .527339816, y: .939455092}
    - {x: .386722654, y: .996091783}
    - {x: .527339816, y: .996091783}
    indices: 000000000300000001000000020000000300000000000000
    material: {fileID: 2100000, guid: 0b38b0b706d87b04ab4621c37c7d5019, type: 2}
    materialId: 0
    sourceTextureGUID: 10fccc8bd5aead04ca7376a040205f6f
    extractRegion: 0
    regionX: 0
    regionY: 0
    regionW: 0
    regionH: 0
    flipped: 0
    complexGeometry: 0
    physicsEngine: 0
    colliderType: 0
    customColliders: []
    colliderVertices: []
    colliderIndicesFwd: 
    colliderIndicesBack: 
    colliderConvex: 0
    colliderSmoothSphereCollisions: 0
    polygonCollider2D: []
    edgeCollider2D: []
    attachPoints: []
  - name: spear
    boundsData:
    - {x: 0, y: 0, z: 0}
    - {x: 22, y: 368, z: 0}
    untrimmedBoundsData:
    - {x: 0, y: 0, z: 0}
    - {x: 22, y: 368, z: 0}
    texelSize: {x: 1, y: 1}
    positions:
    - {x: -11, y: -184, z: 0}
    - {x: 11, y: -184, z: 0}
    - {x: -11, y: 184, z: 0}
    - {x: 11, y: 184, z: 0}
    normals: []
    tangents: []
    uvs:
    - {x: .00781640597, y: .00390820298}
    - {x: .0937460959, y: .00390820298}
    - {x: .00781640597, y: .722654283}
    - {x: .0937460959, y: .722654283}
    indices: 000000000300000001000000020000000300000000000000
    material: {fileID: 2100000, guid: 0b38b0b706d87b04ab4621c37c7d5019, type: 2}
    materialId: 0
    sourceTextureGUID: 54e7cc7562d107b4d96e0422dc7ed587
    extractRegion: 0
    regionX: 0
    regionY: 0
    regionW: 0
    regionH: 0
    flipped: 0
    complexGeometry: 0
    physicsEngine: 0
    colliderType: 0
    customColliders: []
    colliderVertices: []
    colliderIndicesFwd: 
    colliderIndicesBack: 
    colliderConvex: 0
    colliderSmoothSphereCollisions: 0
    polygonCollider2D: []
    edgeCollider2D: []
    attachPoints: []
  - name: shield
    boundsData:
    - {x: 0, y: 0, z: 0}
    - {x: 70, y: 72, z: 0}
    untrimmedBoundsData:
    - {x: 0, y: 0, z: 0}
    - {x: 70, y: 72, z: 0}
    texelSize: {x: 1, y: 1}
    positions:
    - {x: -35, y: -36, z: 0}
    - {x: 35, y: -36, z: 0}
    - {x: -35, y: 36, z: 0}
    - {x: 35, y: 36, z: 0}
    normals: []
    tangents: []
    uvs:
    - {x: .109378904, y: .500001967}
    - {x: .382808596, y: .500001967}
    - {x: .109378904, y: .640623033}
    - {x: .382808596, y: .640623033}
    indices: 000000000300000001000000020000000300000000000000
    material: {fileID: 2100000, guid: 0b38b0b706d87b04ab4621c37c7d5019, type: 2}
    materialId: 0
    sourceTextureGUID: 95c2d261ccd8d8c4b8760693cba0e08a
    extractRegion: 0
    regionX: 0
    regionY: 0
    regionW: 0
    regionH: 0
    flipped: 0
    complexGeometry: 0
    physicsEngine: 0
    colliderType: 0
    customColliders: []
    colliderVertices: []
    colliderIndicesFwd: 
    colliderIndicesBack: 
    colliderConvex: 0
    colliderSmoothSphereCollisions: 0
    polygonCollider2D: []
    edgeCollider2D: []
    attachPoints: []
  - name: dagger
    boundsData:
    - {x: 0, y: 0, z: 0}
    - {x: 26, y: 108, z: 0}
    untrimmedBoundsData:
    - {x: 0, y: 0, z: 0}
    - {x: 26, y: 108, z: 0}
    texelSize: {x: 1, y: 1}
    positions:
    - {x: -13, y: -54, z: 0}
    - {x: 13, y: -54, z: 0}
    - {x: -13, y: 54, z: 0}
    - {x: 13, y: 54, z: 0}
    normals: []
    tangents: []
    uvs:
    - {x: .808597684, y: .00390820298}
    - {x: .910152316, y: .00390820298}
    - {x: .808597684, y: .214841798}
    - {x: .910152316, y: .214841798}
    indices: 000000000300000001000000020000000300000000000000
    material: {fileID: 2100000, guid: 0b38b0b706d87b04ab4621c37c7d5019, type: 2}
    materialId: 0
    sourceTextureGUID: cff16cdb2ad3d54478e6d12afd6f835c
    extractRegion: 0
    regionX: 0
    regionY: 0
    regionW: 0
    regionH: 0
    flipped: 0
    complexGeometry: 0
    physicsEngine: 0
    colliderType: 0
    customColliders: []
    colliderVertices: []
    colliderIndicesFwd: 
    colliderIndicesBack: 
    colliderConvex: 0
    colliderSmoothSphereCollisions: 0
    polygonCollider2D: []
    edgeCollider2D: []
    attachPoints: []
  premultipliedAlpha: 0
  material: {fileID: 0}
  materials:
  - {fileID: 2100000, guid: 0b38b0b706d87b04ab4621c37c7d5019, type: 2}
  textures:
  - {fileID: 2800000, guid: e76e8228e3b38264194b3dfad10b7af7, type: 3}
  pngTextures: []
  materialPngTextureId: 00000000
  textureFilterMode: 1
  textureMipMaps: 0
  allowMultipleAtlases: 0
  spriteCollectionGUID: db91f44e9acec474fb74db538fe06935
  spriteCollectionName: GoblinsAtlas
  assetName: 
  loadable: 0
  invOrthoSize: 2
  halfTargetHeight: .5
  buildKey: 190155907
  dataGuid: 31c989bbbeeeab24e99b68ac7975d2b8
  managedSpriteCollection: 0
  hasPlatformData: 0
  spriteCollectionPlatforms: []
  spriteCollectionPlatformGUIDs: []
--- !u!1001 &100100000
Prefab:
  m_ObjectHideFlags: 1
  serializedVersion: 2
  m_Modification:
    m_TransformParent: {fileID: 0}
    m_Modifications: []
    m_RemovedComponents: []
  m_ParentPrefab: {fileID: 0}
  m_RootGameObject: {fileID: 100000}
  m_IsPrefabParent: 1
  m_IsExploded: 1
